[2020-12-26 15:04:18,488] {taskinstance.py:826} INFO - Dependencies all met for <TaskInstance: airflow_tutorial_v01.sleep 2020-11-01T19:00:00+00:00 [queued]>
[2020-12-26 15:04:18,498] {taskinstance.py:826} INFO - Dependencies all met for <TaskInstance: airflow_tutorial_v01.sleep 2020-11-01T19:00:00+00:00 [queued]>
[2020-12-26 15:04:18,498] {taskinstance.py:1017} INFO - 
--------------------------------------------------------------------------------
[2020-12-26 15:04:18,498] {taskinstance.py:1018} INFO - Starting attempt 1 of 2
[2020-12-26 15:04:18,498] {taskinstance.py:1019} INFO - 
--------------------------------------------------------------------------------
[2020-12-26 15:04:18,504] {taskinstance.py:1038} INFO - Executing <Task(BashOperator): sleep> on 2020-11-01T19:00:00+00:00
[2020-12-26 15:04:18,505] {standard_task_runner.py:51} INFO - Started process 248870 to run task
[2020-12-26 15:04:18,508] {standard_task_runner.py:75} INFO - Running: ['airflow', 'tasks', 'run', 'airflow_tutorial_v01', 'sleep', '2020-11-01T19:00:00+00:00', '--job-id', '60', '--pool', 'default_pool', '--raw', '--subdir', 'DAGS_FOLDER/tutorial.py', '--cfg-path', '/tmp/tmp96mk9_g6']
[2020-12-26 15:04:18,508] {standard_task_runner.py:76} INFO - Job 60: Subtask sleep
[2020-12-26 15:04:18,538] {logging_mixin.py:103} INFO - Running <TaskInstance: airflow_tutorial_v01.sleep 2020-11-01T19:00:00+00:00 [running]> on host quinn-GL62M-7REX
[2020-12-26 15:04:18,571] {taskinstance.py:1230} INFO - Exporting the following env vars:
AIRFLOW_CTX_DAG_OWNER=me
AIRFLOW_CTX_DAG_ID=airflow_tutorial_v01
AIRFLOW_CTX_TASK_ID=sleep
AIRFLOW_CTX_EXECUTION_DATE=2020-11-01T19:00:00+00:00
AIRFLOW_CTX_DAG_RUN_ID=scheduled__2020-11-01T19:00:00+00:00
[2020-12-26 15:04:18,571] {bash.py:135} INFO - Tmp dir root location: 
 /tmp
[2020-12-26 15:04:18,572] {bash.py:158} INFO - Running command: sleep 5
[2020-12-26 15:04:18,576] {bash.py:169} INFO - Output:
[2020-12-26 15:04:23,577] {bash.py:177} INFO - Command exited with return code 0
[2020-12-26 15:04:23,606] {taskinstance.py:1135} INFO - Marking task as SUCCESS. dag_id=airflow_tutorial_v01, task_id=sleep, execution_date=20201101T190000, start_date=20201226T200418, end_date=20201226T200423
[2020-12-26 15:04:23,633] {taskinstance.py:1195} INFO - 1 downstream tasks scheduled from follow-on schedule check
[2020-12-26 15:04:23,658] {local_task_job.py:118} INFO - Task exited with return code 0
