[2020-12-26 15:05:05,082] {taskinstance.py:826} INFO - Dependencies all met for <TaskInstance: airflow_tutorial_v01.print_hello 2020-11-02T02:00:00+00:00 [queued]>
[2020-12-26 15:05:05,089] {taskinstance.py:826} INFO - Dependencies all met for <TaskInstance: airflow_tutorial_v01.print_hello 2020-11-02T02:00:00+00:00 [queued]>
[2020-12-26 15:05:05,089] {taskinstance.py:1017} INFO - 
--------------------------------------------------------------------------------
[2020-12-26 15:05:05,089] {taskinstance.py:1018} INFO - Starting attempt 1 of 2
[2020-12-26 15:05:05,089] {taskinstance.py:1019} INFO - 
--------------------------------------------------------------------------------
[2020-12-26 15:05:05,100] {taskinstance.py:1038} INFO - Executing <Task(BashOperator): print_hello> on 2020-11-02T02:00:00+00:00
[2020-12-26 15:05:05,102] {standard_task_runner.py:51} INFO - Started process 250283 to run task
[2020-12-26 15:05:05,105] {standard_task_runner.py:75} INFO - Running: ['airflow', 'tasks', 'run', 'airflow_tutorial_v01', 'print_hello', '2020-11-02T02:00:00+00:00', '--job-id', '77', '--pool', 'default_pool', '--raw', '--subdir', 'DAGS_FOLDER/tutorial.py', '--cfg-path', '/tmp/tmpod0irx1h']
[2020-12-26 15:05:05,106] {standard_task_runner.py:76} INFO - Job 77: Subtask print_hello
[2020-12-26 15:05:05,139] {logging_mixin.py:103} INFO - Running <TaskInstance: airflow_tutorial_v01.print_hello 2020-11-02T02:00:00+00:00 [running]> on host quinn-GL62M-7REX
[2020-12-26 15:05:05,170] {taskinstance.py:1230} INFO - Exporting the following env vars:
AIRFLOW_CTX_DAG_OWNER=me
AIRFLOW_CTX_DAG_ID=airflow_tutorial_v01
AIRFLOW_CTX_TASK_ID=print_hello
AIRFLOW_CTX_EXECUTION_DATE=2020-11-02T02:00:00+00:00
AIRFLOW_CTX_DAG_RUN_ID=scheduled__2020-11-02T02:00:00+00:00
[2020-12-26 15:05:05,171] {bash.py:135} INFO - Tmp dir root location: 
 /tmp
[2020-12-26 15:05:05,171] {bash.py:158} INFO - Running command: echo "hello"
[2020-12-26 15:05:05,176] {bash.py:169} INFO - Output:
[2020-12-26 15:05:05,177] {bash.py:173} INFO - hello
[2020-12-26 15:05:05,177] {bash.py:177} INFO - Command exited with return code 0
[2020-12-26 15:05:05,200] {taskinstance.py:1135} INFO - Marking task as SUCCESS. dag_id=airflow_tutorial_v01, task_id=print_hello, execution_date=20201102T020000, start_date=20201226T200505, end_date=20201226T200505
[2020-12-26 15:05:05,222] {taskinstance.py:1195} INFO - 1 downstream tasks scheduled from follow-on schedule check
[2020-12-26 15:05:05,236] {local_task_job.py:118} INFO - Task exited with return code 0
