[2020-12-26 15:04:08,290] {taskinstance.py:826} INFO - Dependencies all met for <TaskInstance: airflow_tutorial_v01.print_world 2020-11-01T16:00:00+00:00 [queued]>
[2020-12-26 15:04:08,295] {taskinstance.py:826} INFO - Dependencies all met for <TaskInstance: airflow_tutorial_v01.print_world 2020-11-01T16:00:00+00:00 [queued]>
[2020-12-26 15:04:08,295] {taskinstance.py:1017} INFO - 
--------------------------------------------------------------------------------
[2020-12-26 15:04:08,295] {taskinstance.py:1018} INFO - Starting attempt 1 of 2
[2020-12-26 15:04:08,295] {taskinstance.py:1019} INFO - 
--------------------------------------------------------------------------------
[2020-12-26 15:04:08,304] {taskinstance.py:1038} INFO - Executing <Task(PythonOperator): print_world> on 2020-11-01T16:00:00+00:00
[2020-12-26 15:04:08,305] {standard_task_runner.py:51} INFO - Started process 248408 to run task
[2020-12-26 15:04:08,308] {standard_task_runner.py:75} INFO - Running: ['airflow', 'tasks', 'run', 'airflow_tutorial_v01', 'print_world', '2020-11-01T16:00:00+00:00', '--job-id', '55', '--pool', 'default_pool', '--raw', '--subdir', 'DAGS_FOLDER/tutorial.py', '--cfg-path', '/tmp/tmpcoj_psty']
[2020-12-26 15:04:08,308] {standard_task_runner.py:76} INFO - Job 55: Subtask print_world
[2020-12-26 15:04:08,337] {logging_mixin.py:103} INFO - Running <TaskInstance: airflow_tutorial_v01.print_world 2020-11-01T16:00:00+00:00 [running]> on host quinn-GL62M-7REX
[2020-12-26 15:04:08,363] {taskinstance.py:1230} INFO - Exporting the following env vars:
AIRFLOW_CTX_DAG_OWNER=me
AIRFLOW_CTX_DAG_ID=airflow_tutorial_v01
AIRFLOW_CTX_TASK_ID=print_world
AIRFLOW_CTX_EXECUTION_DATE=2020-11-01T16:00:00+00:00
AIRFLOW_CTX_DAG_RUN_ID=scheduled__2020-11-01T16:00:00+00:00
[2020-12-26 15:04:08,363] {logging_mixin.py:103} INFO - world
[2020-12-26 15:04:08,363] {python.py:118} INFO - Done. Returned value was: None
[2020-12-26 15:04:08,370] {taskinstance.py:1135} INFO - Marking task as SUCCESS. dag_id=airflow_tutorial_v01, task_id=print_world, execution_date=20201101T160000, start_date=20201226T200408, end_date=20201226T200408
[2020-12-26 15:04:08,386] {taskinstance.py:1195} INFO - 0 downstream tasks scheduled from follow-on schedule check
[2020-12-26 15:04:08,399] {local_task_job.py:118} INFO - Task exited with return code 0
