[2020-12-26 15:53:36,034] {taskinstance.py:826} INFO - Dependencies all met for <TaskInstance: airflow_tutorial_v01.list_players 2020-11-05T17:00:00+00:00 [queued]>
[2020-12-26 15:53:36,041] {taskinstance.py:826} INFO - Dependencies all met for <TaskInstance: airflow_tutorial_v01.list_players 2020-11-05T17:00:00+00:00 [queued]>
[2020-12-26 15:53:36,041] {taskinstance.py:1017} INFO - 
--------------------------------------------------------------------------------
[2020-12-26 15:53:36,041] {taskinstance.py:1018} INFO - Starting attempt 1 of 2
[2020-12-26 15:53:36,041] {taskinstance.py:1019} INFO - 
--------------------------------------------------------------------------------
[2020-12-26 15:53:36,051] {taskinstance.py:1038} INFO - Executing <Task(PythonOperator): list_players> on 2020-11-05T17:00:00+00:00
[2020-12-26 15:53:36,055] {standard_task_runner.py:51} INFO - Started process 308710 to run task
[2020-12-26 15:53:36,079] {standard_task_runner.py:75} INFO - Running: ['airflow', 'tasks', 'run', 'airflow_tutorial_v01', 'list_players', '2020-11-05T17:00:00+00:00', '--job-id', '351', '--pool', 'default_pool', '--raw', '--subdir', 'DAGS_FOLDER/tutorial.py', '--cfg-path', '/tmp/tmpv4w7jol0']
[2020-12-26 15:53:36,080] {standard_task_runner.py:76} INFO - Job 351: Subtask list_players
[2020-12-26 15:53:36,139] {logging_mixin.py:103} INFO - Running <TaskInstance: airflow_tutorial_v01.list_players 2020-11-05T17:00:00+00:00 [running]> on host quinn-GL62M-7REX
[2020-12-26 15:53:36,177] {taskinstance.py:1230} INFO - Exporting the following env vars:
AIRFLOW_CTX_DAG_OWNER=me
AIRFLOW_CTX_DAG_ID=airflow_tutorial_v01
AIRFLOW_CTX_TASK_ID=list_players
AIRFLOW_CTX_EXECUTION_DATE=2020-11-05T17:00:00+00:00
AIRFLOW_CTX_DAG_RUN_ID=scheduled__2020-11-05T17:00:00+00:00
[2020-12-26 15:53:36,184] {logging_mixin.py:103} INFO - Wilson Chandler
[2020-12-26 15:53:36,184] {logging_mixin.py:103} INFO - John Wall
[2020-12-26 15:53:36,184] {logging_mixin.py:103} INFO - Gary Neal
[2020-12-26 15:53:36,184] {logging_mixin.py:103} INFO - Garrett Temple
[2020-12-26 15:53:36,184] {logging_mixin.py:103} INFO - Aaron Gordon
[2020-12-26 15:53:36,184] {python.py:118} INFO - Done. Returned value was: None
[2020-12-26 15:53:36,191] {taskinstance.py:1135} INFO - Marking task as SUCCESS. dag_id=airflow_tutorial_v01, task_id=list_players, execution_date=20201105T170000, start_date=20201226T205336, end_date=20201226T205336
[2020-12-26 15:53:36,209] {taskinstance.py:1195} INFO - 0 downstream tasks scheduled from follow-on schedule check
[2020-12-26 15:53:36,230] {local_task_job.py:118} INFO - Task exited with return code 0
