gid,date,team,opp,season,start,inj,out,min,fgm,fga,fg3m,fg3a,ftm,fta,oreb,dreb,reb,ast,stl,blk,to,pf,pts,pct_stl,pct_blka,pct_ftm,pct_reb,pct_pts,pct_fg3a,pct_pfd,pct_fta,pct_blk,pct_fga,usg_pct,pct_tov,pct_fg3m,pct_pf,pct_dreb,pct_fgm,pct_ast,pct_oreb
1,2015-10-28,was,orl,2016,FALSE,FALSE,FALSE,36.9166666666667,3,10,1,5,0,0,2,6,8,5,2,0,1,1,7,0.286,0.25,0,0.205,0.088,0.2,0.118,0,0,0.152,0.123,0.067,0.143,0.091,0.222,0.097,0.333,0.167
1,2014-10-28,was,orl,2015,FALSE,FALSE,FALSE,36.9166666666667,15,10,1,5,0,0,2,6,8,5,2,0,1,1,7,0.286,0.25,0,0.205,0.088,0.2,0.118,0,0,0.152,0.123,0.067,0.143,0.091,0.222,0.097,0.333,0.167
1,2015-11-02,was,orl,2016,FALSE,FALSE,TRUE,36.9166666666667,0,10,1,5,0,0,2,6,8,5,2,0,1,1,7,0.286,0.25,0,0.205,0.088,0.2,0.118,0,0,0.152,0.123,0.067,0.143,0.091,0.222,0.097,0.333,0.167
2,2015-10-28,was,orl,2016,FALSE,FALSE,FALSE,36.9166666666667,3,10,1,5,0,0,2,6,8,5,2,0,1,1,7,0.286,0.25,0,0.205,0.088,0.2,0.118,0,0,0.152,0.123,0.067,0.143,0.091,0.222,0.097,0.333,0.167
5,2015-10-28,orl,was,2016,FALSE,FALSE,FALSE,28.4833333333333,5,13,0,0,0,0,1,6,7,2,1,2,2,4,10,0.25,0.2,0,0.241,0.2,0,0.125,0,0.667,0.228,0.209,0.154,0,0.364,0.286,0.227,0.143,0.125
1,2015-10-29,was,orl,2016,FALSE,FALSE,FALSE,36.9166666666667,3,10,1,5,0,0,2,6,8,5,2,0,1,1,7,0.286,0.25,0,0.205,0.088,0.2,0.118,0,0,0.152,0.123,0.067,0.143,0.091,0.222,0.097,0.333,0.167
5,2015-10-29,orl,was,2016,FALSE,FALSE,FALSE,28.4833333333333,7,13,0,0,0,0,1,6,7,2,1,2,2,4,10,0.25,0.2,0,0.241,0.2,0,0.125,0,0.667,0.228,0.209,0.154,0,0.364,0.286,0.227,0.143,0.125
1,2015-11-11,was,orl,2016,FALSE,FALSE,FALSE,36.9166666666667,4,10,1,5,0,0,2,6,8,5,2,0,1,1,7,0.286,0.25,0,0.205,0.088,0.2,0.118,0,0,0.152,0.123,0.067,0.143,0.091,0.222,0.097,0.333,0.167
5,2015-11-11,orl,was,2016,FALSE,FALSE,FALSE,28.4833333333333,5,13,0,0,0,0,1,6,7,2,1,2,2,4,10,0.25,0.2,0,0.241,0.2,0,0.125,0,0.667,0.228,0.209,0.154,0,0.364,0.286,0.227,0.143,0.125
1,2015-11-14,was,orl,2016,FALSE,FALSE,FALSE,36.9166666666667,4,10,1,5,0,0,2,6,8,5,2,0,1,1,7,0.286,0.25,0,0.205,0.088,0.2,0.118,0,0,0.152,0.123,0.067,0.143,0.091,0.222,0.097,0.333,0.167
5,2015-11-14,orl,was,2016,FALSE,FALSE,FALSE,28.4833333333333,7,13,0,0,0,0,1,6,7,2,1,2,2,4,10,0.25,0.2,0,0.241,0.2,0,0.125,0,0.667,0.228,0.209,0.154,0,0.364,0.286,0.227,0.143,0.125
1,2015-11-20,was,orl,2016,FALSE,FALSE,FALSE,36.9166666666667,4,10,1,5,0,0,2,6,8,5,2,0,1,1,7,0.286,0.25,0,0.205,0.088,0.2,0.118,0,0,0.152,0.123,0.067,0.143,0.091,0.222,0.097,0.333,0.167
5,2015-11-20,orl,was,2016,FALSE,FALSE,FALSE,28.4833333333333,0,13,0,0,0,0,1,6,7,2,1,2,2,4,10,0.25,0.2,0,0.241,0.2,0,0.125,0,0.667,0.228,0.209,0.154,0,0.364,0.286,0.227,0.143,0.125
